# Fdb version 3
["bibtex 2019-ExcelFIT-ShortName"] 1553206968 "2019-ExcelFIT-ShortName.aux" "2019-ExcelFIT-ShortName.bbl" "2019-ExcelFIT-ShortName" 1553206985
  "/usr/share/texlive/texmf-dist/bibtex/bst/base/unsrt.bst" 1544722920 18030 1376b4b231b50c66211e47e42eda2875 ""
  "2019-ExcelFIT-ShortName-bib.bib" 1553202893 1708 d4f4e6b042be2052f28da4e961761388 ""
  "2019-ExcelFIT-ShortName.aux" 1553206969 8741 9a50970269a6f78b86e3f5cded680bb3 ""
  (generated)
  "2019-ExcelFIT-ShortName.bbl"
  "2019-ExcelFIT-ShortName.blg"
["pdflatex"] 1553206968 "2019-ExcelFIT-ShortName.tex" "2019-ExcelFIT-ShortName.pdf" "2019-ExcelFIT-ShortName" 1553206985
  "/home/rmin/.texlive2018/texmf-var/web2c/pdftex/pdflatex.fmt" 1550762674 789641 18f98af00857ae80943759ef5b046c13 ""
  "/usr/share/texlive/texmf-dist/fonts/enc/dvips/base/8r.enc" 1544722916 4850 80dc9bab7f31fb78a000ccfed0e27cab ""
  "/usr/share/texlive/texmf-dist/fonts/map/fontname/texfonts.map" 1511824771 3332 103109f5612ad95229751940c61aada0 ""
  "/usr/share/texlive/texmf-dist/fonts/map/pdftex/updmap/pdftex.map" 1530836625 2850648 765161d183c5509465c2744baf096a7a ""
  "/usr/share/texlive/texmf-dist/fonts/tfm/adobe/courier/pcrb7t.tfm" 1480098688 960 4ab65358b8406f30ef5496c8c096d22b ""
  "/usr/share/texlive/texmf-dist/fonts/tfm/adobe/courier/pcrb8r.tfm" 1480098688 1292 3059476c50a24578715759f22652f3d0 ""
  "/usr/share/texlive/texmf-dist/fonts/tfm/adobe/courier/pcrr7t.tfm" 1480098688 960 379cc0019370a9e0208a0a3f949f847a ""
  "/usr/share/texlive/texmf-dist/fonts/tfm/adobe/courier/pcrr8r.tfm" 1480098688 1292 bd42be2f344128bff6d35d98474adfe3 ""
  "/usr/share/texlive/texmf-dist/fonts/tfm/adobe/helvetic/phvb7t.tfm" 1480098688 2240 eb56c13537f4d8a0bd3fafc25572b1bd ""
  "/usr/share/texlive/texmf-dist/fonts/tfm/adobe/helvetic/phvb8r.tfm" 1480098688 4484 b828043cbd581d289d955903c1339981 ""
  "/usr/share/texlive/texmf-dist/fonts/tfm/adobe/helvetic/phvr7t.tfm" 1480098688 2520 53e01eef820ca829e42c1333c3fd02b9 ""
  "/usr/share/texlive/texmf-dist/fonts/tfm/adobe/helvetic/phvr8r.tfm" 1480098688 4712 9ef4d7d106579d4b136e1529e1a4533c ""
  "/usr/share/texlive/texmf-dist/fonts/tfm/adobe/helvetic/phvro7t.tfm" 1480098688 2772 ab6561c8ff5ee69ff6d5961b9356db5a ""
  "/usr/share/texlive/texmf-dist/fonts/tfm/adobe/helvetic/phvro8r.tfm" 1480098688 4964 f223217e5e1f85fa3742fb0480aba9e8 ""
  "/usr/share/texlive/texmf-dist/fonts/tfm/adobe/symbol/psyr.tfm" 1480098689 1408 5937f58aa508ea2cea4901c07d10f5fe ""
  "/usr/share/texlive/texmf-dist/fonts/tfm/adobe/times/psyro.tfm" 1480098689 1544 23a042a74981a3e4b6ce2e350e390409 ""
  "/usr/share/texlive/texmf-dist/fonts/tfm/adobe/times/ptmb7t.tfm" 1480098689 2172 fd0c924230362ff848a33632ed45dc23 ""
  "/usr/share/texlive/texmf-dist/fonts/tfm/adobe/times/ptmb8r.tfm" 1480098689 4524 6bce29db5bc272ba5f332261583fee9c ""
  "/usr/share/texlive/texmf-dist/fonts/tfm/adobe/times/ptmr7t.tfm" 1480098689 2124 2601a75482e9426d33db523edf23570a ""
  "/usr/share/texlive/texmf-dist/fonts/tfm/adobe/times/ptmr8r.tfm" 1480098689 4408 25b74d011a4c66b7f212c0cc3c90061b ""
  "/usr/share/texlive/texmf-dist/fonts/tfm/adobe/times/ptmri7t.tfm" 1480098689 2288 f478fc8fed18759effb59f3dad7f3084 ""
  "/usr/share/texlive/texmf-dist/fonts/tfm/adobe/times/ptmri8r.tfm" 1480098689 4640 532ca3305aad10cc01d769f3f91f1029 ""
  "/usr/share/texlive/texmf-dist/fonts/tfm/adobe/times/zptmcm7m.tfm" 1480098689 2232 db256afffc8202da192b4641df14d602 ""
  "/usr/share/texlive/texmf-dist/fonts/tfm/adobe/times/zptmcm7t.tfm" 1480098689 2172 1d00c2a0d10f23031be62329457a870c ""
  "/usr/share/texlive/texmf-dist/fonts/tfm/adobe/times/zptmcm7v.tfm" 1480098689 1032 20febbd0f0c9a48eb78616f897008286 ""
  "/usr/share/texlive/texmf-dist/fonts/tfm/adobe/times/zptmcm7y.tfm" 1480098689 1520 ad7b3c1a480a03b3e41b5fbb13d938f2 ""
  "/usr/share/texlive/texmf-dist/fonts/tfm/public/amsfonts/symbols/msam10.tfm" 1480098698 916 f87d7c45f9c908e672703b83b72241a3 ""
  "/usr/share/texlive/texmf-dist/fonts/tfm/public/amsfonts/symbols/msbm10.tfm" 1480098698 908 2921f8a10601f252058503cc6570e581 ""
  "/usr/share/texlive/texmf-dist/fonts/tfm/public/cm/cmex10.tfm" 1480098701 992 662f679a0b3d2d53c1b94050fdaa3f50 ""
  "/usr/share/texlive/texmf-dist/fonts/tfm/public/cm/cmmi10.tfm" 1480098701 1528 abec98dbc43e172678c11b3b9031252a ""
  "/usr/share/texlive/texmf-dist/fonts/tfm/public/cm/cmr10.tfm" 1480098701 1296 45809c5a464d5f32c8f98ba97c1bb47f ""
  "/usr/share/texlive/texmf-dist/fonts/tfm/public/cm/cmsy10.tfm" 1480098701 1124 6c73e740cf17375f03eec0ee63599741 ""
  "/usr/share/texlive/texmf-dist/fonts/tfm/public/rsfs/rsfs10.tfm" 1480098717 688 37338d6ab346c2f1466b29e195316aa4 ""
  "/usr/share/texlive/texmf-dist/fonts/type1/public/amsfonts/cm/cmmi10.pfb" 1480098733 36299 5f9df58c2139e7edcf37c8fca4bd384d ""
  "/usr/share/texlive/texmf-dist/fonts/type1/public/amsfonts/cm/cmr10.pfb" 1480098733 35752 024fb6c41858982481f6968b5fc26508 ""
  "/usr/share/texlive/texmf-dist/fonts/type1/public/amsfonts/cm/cmsy10.pfb" 1480098733 32569 5e5ddc8df908dea60932f3c484a54c0d ""
  "/usr/share/texlive/texmf-dist/fonts/type1/urw/courier/ucrb8a.pfb" 1480098746 50493 4ed1f7e9eba8f1f3e1ec25195460190d ""
  "/usr/share/texlive/texmf-dist/fonts/type1/urw/courier/ucrr8a.pfb" 1480098746 45758 19968a0990191524e34e1994d4a31cb6 ""
  "/usr/share/texlive/texmf-dist/fonts/type1/urw/helvetic/uhvb8a.pfb" 1480098746 35941 f27169cc74234d5bd5e4cca5abafaabb ""
  "/usr/share/texlive/texmf-dist/fonts/type1/urw/helvetic/uhvr8a.pfb" 1480098746 44648 23115b2a545ebfe2c526c3ca99db8b95 ""
  "/usr/share/texlive/texmf-dist/fonts/type1/urw/helvetic/uhvro8a.pfb" 1480098746 48169 b4fd9d908b9ee8c65d4305ad39071c5e ""
  "/usr/share/texlive/texmf-dist/fonts/type1/urw/symbol/usyr.pfb" 1480098746 33709 b09d2e140b7e807d3a97058263ab6693 ""
  "/usr/share/texlive/texmf-dist/fonts/type1/urw/times/utmb8a.pfb" 1480098746 44729 811d6c62865936705a31c797a1d5dada ""
  "/usr/share/texlive/texmf-dist/fonts/type1/urw/times/utmr8a.pfb" 1480098746 46026 6dab18b61c907687b520c72847215a68 ""
  "/usr/share/texlive/texmf-dist/fonts/type1/urw/times/utmri8a.pfb" 1480098746 45458 a3faba884469519614ca56ba5f6b1de1 ""
  "/usr/share/texlive/texmf-dist/fonts/vf/adobe/courier/pcrb7t.vf" 1480098757 1344 c590fc3b8640445e169e64e330afb3d5 ""
  "/usr/share/texlive/texmf-dist/fonts/vf/adobe/courier/pcrr7t.vf" 1480098757 1344 6ff472164bf9de0fb2e864b28ac156d9 ""
  "/usr/share/texlive/texmf-dist/fonts/vf/adobe/helvetic/phvb7t.vf" 1480098757 1372 1c26b449eb4a1a0bcf6ac7cfe376d450 ""
  "/usr/share/texlive/texmf-dist/fonts/vf/adobe/helvetic/phvr7t.vf" 1480098757 1372 dc841a9f00a1a11b1443367ae6c5588e ""
  "/usr/share/texlive/texmf-dist/fonts/vf/adobe/helvetic/phvro7t.vf" 1480098757 1372 9948cedecdb0445a3b5cf1b8a8082ab8 ""
  "/usr/share/texlive/texmf-dist/fonts/vf/adobe/times/ptmb7t.vf" 1480098758 1372 788387fea833ef5963f4c5bffe33eb89 ""
  "/usr/share/texlive/texmf-dist/fonts/vf/adobe/times/ptmr7t.vf" 1480098758 1380 0ea3a3370054be6da6acd929ec569f06 ""
  "/usr/share/texlive/texmf-dist/fonts/vf/adobe/times/ptmri7t.vf" 1480098758 1384 a9d8adaf491ce34e5fba99dc7bbe5f39 ""
  "/usr/share/texlive/texmf-dist/fonts/vf/adobe/times/zptmcm7m.vf" 1480098758 1132 27520247d3fe18d4266a226b461885c2 ""
  "/usr/share/texlive/texmf-dist/fonts/vf/adobe/times/zptmcm7t.vf" 1480098758 1108 d271d6f9de4122c3f8d3b65666167fac ""
  "/usr/share/texlive/texmf-dist/fonts/vf/adobe/times/zptmcm7v.vf" 1480098758 1012 046369ac6a83af997c3aa05a43256ad5 ""
  "/usr/share/texlive/texmf-dist/fonts/vf/adobe/times/zptmcm7y.vf" 1480098758 964 5673178ff30617b900214de28ab32b38 ""
  "/usr/share/texlive/texmf-dist/tex/context/base/mkii/supp-pdf.mkii" 1544722914 71627 94eb9990bed73c364d7f53f960cc8c5b ""
  "/usr/share/texlive/texmf-dist/tex/generic/babel-english/english.ldf" 1496785618 7008 9ff5fdcc865b01beca2b0fe4a46231d4 ""
  "/usr/share/texlive/texmf-dist/tex/generic/babel/babel.def" 1528235896 70328 4c1c2424f3e68a8ebf8adb72f7be6112 ""
  "/usr/share/texlive/texmf-dist/tex/generic/babel/babel.sty" 1528235896 16004 293e1516e7acda164a88a332c25064b2 ""
  "/usr/share/texlive/texmf-dist/tex/generic/babel/switch.def" 1528235896 13069 f93658d7040fbcb8fbaccdd3bf77503b ""
  "/usr/share/texlive/texmf-dist/tex/generic/babel/txtbabel.def" 1528235896 7435 6c566fc19b3503b2b2da8bb4550f2b58 ""
  "/usr/share/texlive/texmf-dist/tex/generic/ifxetex/ifxetex.sty" 1480098815 1458 43ab4710dc82f3edeabecd0d099626b2 ""
  "/usr/share/texlive/texmf-dist/tex/generic/oberdiek/gettitlestring.sty" 1544722913 8237 3b62ef1f7e2c23a328c814b3893bc11f ""
  "/usr/share/texlive/texmf-dist/tex/generic/oberdiek/hobsub-generic.sty" 1544722913 185313 3e16abd014cb2c328020e45d63ed7f45 ""
  "/usr/share/texlive/texmf-dist/tex/generic/oberdiek/hobsub-hyperref.sty" 1544722913 70864 bcd5b216757bd619ae692a151d90085d ""
  "/usr/share/texlive/texmf-dist/tex/generic/oberdiek/ifpdf.sty" 1544722913 1251 d170e11a3246c3392bc7f59595af42cb ""
  "/usr/share/texlive/texmf-dist/tex/generic/oberdiek/ifvtex.sty" 1544722913 6797 90b7f83b0ad46826bc16058b1e3d48df ""
  "/usr/share/texlive/texmf-dist/tex/generic/unicode-data/UnicodeData.txt" 1528926238 1769137 acc291106c3758d2025f8d7bd5518bee ""
  "/usr/share/texlive/texmf-dist/tex/latex/amsfonts/amsfonts.sty" 1480098820 5949 3f3fd50a8cc94c3d4cbf4fc66cd3df1c ""
  "/usr/share/texlive/texmf-dist/tex/latex/amsfonts/amssymb.sty" 1480098820 13829 94730e64147574077f8ecfea9bb69af4 ""
  "/usr/share/texlive/texmf-dist/tex/latex/amsmath/amsbsy.sty" 1523134290 2211 ca7ce284ab93c8eecdc6029dc5ccbd73 ""
  "/usr/share/texlive/texmf-dist/tex/latex/amsmath/amsgen.sty" 1523134290 4161 7f6eb9092061a11f87d08ed13515b48d ""
  "/usr/share/texlive/texmf-dist/tex/latex/amsmath/amsmath.sty" 1523134290 84354 7292177bb735c466b78634ee4efd537e ""
  "/usr/share/texlive/texmf-dist/tex/latex/amsmath/amsopn.sty" 1523134290 4116 32e6abd27229755a83a8b7f18e583890 ""
  "/usr/share/texlive/texmf-dist/tex/latex/amsmath/amstext.sty" 1523134290 2432 8ff93b1137020e8f21930562a874ae66 ""
  "/usr/share/texlive/texmf-dist/tex/latex/base/article.cls" 1544722912 19823 fcbc01552b07b608574cbf8e1977e0c0 ""
  "/usr/share/texlive/texmf-dist/tex/latex/base/fleqn.clo" 1544722912 4754 1d92271cd4b393d657812b84260b22c6 ""
  "/usr/share/texlive/texmf-dist/tex/latex/base/ifthen.sty" 1544722912 5161 c004ea5a189d4bdcf42e86754ad75a58 ""
  "/usr/share/texlive/texmf-dist/tex/latex/base/inputenc.sty" 1544722912 5052 f2525dfd6e503dc383e90b568c6c9f02 ""
  "/usr/share/texlive/texmf-dist/tex/latex/base/size11.clo" 1544722912 8310 c914ded44e64c3c6e0ed92e7ac6a2004 ""
  "/usr/share/texlive/texmf-dist/tex/latex/blindtext/blindtext.sty" 1480098823 47295 de48b7f8ebf4b54709a2f6b2c7106dd5 ""
  "/usr/share/texlive/texmf-dist/tex/latex/booktabs/booktabs.sty" 1480098823 5869 94335281ffcab47f341cf07ea8220e30 ""
  "/usr/share/texlive/texmf-dist/tex/latex/caption/caption.sty" 1528577929 66287 d36a847b369384f469bcc508af4f1b98 ""
  "/usr/share/texlive/texmf-dist/tex/latex/caption/caption3.sty" 1528577929 66886 6e8b633cfe0c40edf5496588a2f4d7f8 ""
  "/usr/share/texlive/texmf-dist/tex/latex/enumitem/enumitem.sty" 1480098827 42666 6fa770e3485520a6a5f2ea7d259c8f8d ""
  "/usr/share/texlive/texmf-dist/tex/latex/fancyhdr/fancyhdr.sty" 1498861448 10663 d7fcc0dc4f35e8998b8cfeef8407d37d ""
  "/usr/share/texlive/texmf-dist/tex/latex/geometry/geometry.sty" 1525727744 41645 0653033a985e06c69a2a9cea9a95e31a ""
  "/usr/share/texlive/texmf-dist/tex/latex/graphics-cfg/color.cfg" 1480098830 1213 620bba36b25224fa9b7e1ccb4ecb76fd ""
  "/usr/share/texlive/texmf-dist/tex/latex/graphics-cfg/graphics.cfg" 1480098830 1224 978390e9c2234eab29404bc21b268d1e ""
  "/usr/share/texlive/texmf-dist/tex/latex/graphics-def/pdftex.def" 1515537368 17334 520b9b85ad8a2a48eda3f643e27a5179 ""
  "/usr/share/texlive/texmf-dist/tex/latex/graphics/graphics.sty" 1523134385 15272 5a97061616e0c8b2aa79c6615ff769f4 ""
  "/usr/share/texlive/texmf-dist/tex/latex/graphics/graphicx.sty" 1523134385 9063 d0a305975932762117cd1f06a582f896 ""
  "/usr/share/texlive/texmf-dist/tex/latex/graphics/keyval.sty" 1523134385 2591 6404d0c7d28505fb38ce0d86c2e28ae7 ""
  "/usr/share/texlive/texmf-dist/tex/latex/graphics/trig.sty" 1523134385 3977 cb9221976ed8a183afad65b59aa8629a ""
  "/usr/share/texlive/texmf-dist/tex/latex/hyperref/hpdftex.def" 1518041854 51699 9069fc983fff0db91d59a15af144ad62 ""
  "/usr/share/texlive/texmf-dist/tex/latex/hyperref/hyperref.sty" 1518041854 234088 2c849389d62d41c593d9f5176c4116ab ""
  "/usr/share/texlive/texmf-dist/tex/latex/hyperref/nameref.sty" 1480098831 12949 81e4e808884a8f0e276b69410e234656 ""
  "/usr/share/texlive/texmf-dist/tex/latex/hyperref/pd1enc.def" 1518041854 14098 4e70bf396c7c265bd8b0e5cab3fd3d4d ""
  "/usr/share/texlive/texmf-dist/tex/latex/hyperref/puenc.def" 1518041854 122411 10b605a58a28bbe5d61db37da4a85beb ""
  "/usr/share/texlive/texmf-dist/tex/latex/l3kernel/expl3-code.tex" 1529097033 951713 2221a8befff901e852635ea205ef9f7f ""
  "/usr/share/texlive/texmf-dist/tex/latex/l3kernel/expl3.sty" 1529097033 9867 4e775f31f3ae375cab2ffd34788fe667 ""
  "/usr/share/texlive/texmf-dist/tex/latex/l3kernel/l3pdfmode.def" 1529097033 13673 5b5bd41708d9804460e8bae67a5cfab7 ""
  "/usr/share/texlive/texmf-dist/tex/latex/l3packages/xparse/xparse.sty" 1526248607 77213 9d7407dbdd9d11c497209c4b44354bb8 ""
  "/usr/share/texlive/texmf-dist/tex/latex/latexconfig/epstopdf-sys.cfg" 1480098833 678 4792914a8f45be57bb98413425e4c7af ""
  "/usr/share/texlive/texmf-dist/tex/latex/latexconfig/hyperref.cfg" 1480098833 235 6031e5765137be07eed51a510b2b8fb7 ""
  "/usr/share/texlive/texmf-dist/tex/latex/lineno/lineno.sty" 1480098833 151738 8cd767481920f0eb785302dacfc87057 ""
  "/usr/share/texlive/texmf-dist/tex/latex/listings/listings.cfg" 1480098833 1827 d72ad54409ca5c1068a1939c63441bd2 ""
  "/usr/share/texlive/texmf-dist/tex/latex/listings/listings.sty" 1480098833 80336 ff90c926c3d7bfdaa3d80ca57123b0bb ""
  "/usr/share/texlive/texmf-dist/tex/latex/listings/lstlang1.sty" 1480098833 93445 48e5be20ba2d0a2ca5c4ce7e292a4bbc ""
  "/usr/share/texlive/texmf-dist/tex/latex/listings/lstmisc.sty" 1480098833 77028 c3eb00afb55a32bc13ca8da7f5234377 ""
  "/usr/share/texlive/texmf-dist/tex/latex/microtype/microtype-pdftex.def" 1516054892 48846 b8c9ed2ca71a7e344e0f79f738d33d61 ""
  "/usr/share/texlive/texmf-dist/tex/latex/microtype/microtype.cfg" 1516054892 24263 58b62b9b15af10c2a301a884405289a4 ""
  "/usr/share/texlive/texmf-dist/tex/latex/microtype/microtype.sty" 1516054892 71031 8c1efead07338247d562f79303165b66 ""
  "/usr/share/texlive/texmf-dist/tex/latex/microtype/mt-msa.cfg" 1516054892 5893 b1115f9ad37c7e9840952f06293b6f67 ""
  "/usr/share/texlive/texmf-dist/tex/latex/microtype/mt-msb.cfg" 1516054892 5558 dabcbec7f6275abd8697b8330d706a08 ""
  "/usr/share/texlive/texmf-dist/tex/latex/microtype/mt-ptm.cfg" 1516054892 12391 cdf0f7aa1c8a3a34b9fbb297c96ea93d ""
  "/usr/share/texlive/texmf-dist/tex/latex/oberdiek/auxhook.sty" 1544722913 3834 4363110eb0ef1eb2b71c8fcbcdb6c357 ""
  "/usr/share/texlive/texmf-dist/tex/latex/oberdiek/epstopdf-base.sty" 1544722913 12095 5337833c991d80788a43d3ce26bd1c46 ""
  "/usr/share/texlive/texmf-dist/tex/latex/oberdiek/grfext.sty" 1544722913 7075 2fe3d848bba95f139de11ded085e74aa ""
  "/usr/share/texlive/texmf-dist/tex/latex/oberdiek/kvoptions.sty" 1544722913 22417 1d9df1eb66848aa31b18a593099cf45c ""
  "/usr/share/texlive/texmf-dist/tex/latex/oberdiek/rerunfilecheck.sty" 1544722913 9581 023642318cef9f4677efe364de1e2a27 ""
  "/usr/share/texlive/texmf-dist/tex/latex/psnfss/mathptmx.sty" 1480098837 4632 cd6d04f090f831ba44222ab7ccd5d2d4 ""
  "/usr/share/texlive/texmf-dist/tex/latex/psnfss/omlztmcm.fd" 1480098837 411 12564a37a279e4e0b533cdf5e03eeb7c ""
  "/usr/share/texlive/texmf-dist/tex/latex/psnfss/omspcr.fd" 1480098837 576 907c194ce74186f4e40247f2ba1986cf ""
  "/usr/share/texlive/texmf-dist/tex/latex/psnfss/omsztmcm.fd" 1480098837 348 f4ce75d394e7d9ac12ca7aac4045ed77 ""
  "/usr/share/texlive/texmf-dist/tex/latex/psnfss/omxztmcm.fd" 1480098837 329 c8cddcc90b6f567b28408eb374773c9c ""
  "/usr/share/texlive/texmf-dist/tex/latex/psnfss/ot1pcr.fd" 1480098837 985 1ed784d7bfe47179f3550d2303b073f8 ""
  "/usr/share/texlive/texmf-dist/tex/latex/psnfss/ot1phv.fd" 1480098837 1684 0ac4554419e828cf2c810306539da167 ""
  "/usr/share/texlive/texmf-dist/tex/latex/psnfss/ot1ptm.fd" 1480098837 961 15056f4a61917ceed3a44e4ac11fcc52 ""
  "/usr/share/texlive/texmf-dist/tex/latex/psnfss/ot1ztmcm.fd" 1480098837 329 aee7226812ba4138ac67a018466b488d ""
  "/usr/share/texlive/texmf-dist/tex/latex/psnfss/times.sty" 1480098837 857 6c716f26c5eadfb81029fcd6ce2d45e6 ""
  "/usr/share/texlive/texmf-dist/tex/latex/regexpatch/regexpatch.sty" 1525381564 26375 db331b357efab203620691f8968c5857 ""
  "/usr/share/texlive/texmf-dist/tex/latex/titlesec/titlesec.sty" 1480098841 37387 afa86533e532701faf233f3f592c61e0 ""
  "/usr/share/texlive/texmf-dist/tex/latex/titlesec/titletoc.sty" 1480098841 18361 6f2961ec45ee4ad03439efe5de257c61 ""
  "/usr/share/texlive/texmf-dist/tex/latex/titlesec/ttlkeys.def" 1480098841 3476 5840a38d3fbbea105c892be7110502b8 ""
  "/usr/share/texlive/texmf-dist/tex/latex/tools/calc.sty" 1523050425 10212 357072c1d20578a30d6387d8a22e72ab ""
  "/usr/share/texlive/texmf-dist/tex/latex/tools/xspace.sty" 1523050425 4542 5251001fb2c96205905dbac86c51c5ab ""
  "/usr/share/texlive/texmf-dist/tex/latex/url/url.sty" 1480098842 12796 8edb7d69a20b857904dd0ea757c14ec9 ""
  "/usr/share/texlive/texmf-dist/tex/latex/xcolor/xcolor.sty" 1480098843 55589 34128738f682d033422ca125f82e5d62 ""
  "/usr/share/texlive/texmf-dist/web2c/texmf.cnf" 1544722920 33523 3a2c32bd77384f8f4508d61b4be83582 ""
  "2019-ExcelFIT-ShortName.aux" 1553206969 8741 9a50970269a6f78b86e3f5cded680bb3 ""
  "2019-ExcelFIT-ShortName.bbl" 1553206968 1107 0f6c5d4c6d470f2cf0a0d9057ecb10e2 "bibtex 2019-ExcelFIT-ShortName"
  "2019-ExcelFIT-ShortName.out" 1553206969 1061 34f73d309e99962139a71c7fa8e80a95 ""
  "2019-ExcelFIT-ShortName.tex" 1553206985 25015 45e9940106cab0d87fab3d923286794b ""
  "ExcelAtFIT-logo.pdf" 1549599900 10353 dcb6f64bac50e9949c67e763dff1f319 ""
  "ExcelAtFIT.cls" 1549602208 12552 1582303ebb295366686d39fc1dca7c2c ""
  "VUT-FIT-logo.pdf" 1451968260 182175 4423cd29d64ce37c09991abf4a562601 ""
  "images/keep-calm.png" 1421762696 38091 e57963c950b3408558c20f6e1aa9acae ""
  "images/placeholder.pdf" 1413890080 4151 ba51734e4292a6fb99463dcf78e46548 ""
  "lastpage.sty" 1280474819 2058 ccfab34eff4029247b352fb972b12eec ""
  (generated)
  "2019-ExcelFIT-ShortName.aux"
  "2019-ExcelFIT-ShortName.pdf"
  "2019-ExcelFIT-ShortName.out"
  "2019-ExcelFIT-ShortName.log"
