This is BibTeX, Version 0.99d (TeX Live 2018)
Capacity: max_strings=100000, hash_size=100000, hash_prime=85009
The top-level auxiliary file: 2019-ExcelFIT-ShortName.aux
The style file: unsrt.bst
Database file #1: 2019-ExcelFIT-ShortName-bib.bib
Warning--entry type for "Herout-Abstract" isn't style-file defined
--line 49 of file 2019-ExcelFIT-ShortName-bib.bib
Warning--entry type for "Herout-Comics" isn't style-file defined
--line 75 of file 2019-ExcelFIT-ShortName-bib.bib
Warning--I didn't find a database entry for "cao2017realtime"
You've used 6 entries,
            1791 wiz_defined-function locations,
            478 strings with 4316 characters,
and the built_in function-call counts, 898 in all, are:
= -- 82
> -- 18
< -- 0
+ -- 10
- -- 4
* -- 26
:= -- 135
add.period$ -- 21
call.type$ -- 6
change.case$ -- 5
chr.to.int$ -- 0
cite$ -- 6
duplicate$ -- 39
empty$ -- 117
format.name$ -- 4
if$ -- 213
int.to.chr$ -- 0
int.to.str$ -- 6
missing$ -- 3
newline$ -- 36
num.names$ -- 4
pop$ -- 35
preamble$ -- 1
purify$ -- 0
quote$ -- 0
skip$ -- 15
stack$ -- 0
substring$ -- 27
swap$ -- 6
text.length$ -- 0
text.prefix$ -- 0
top$ -- 0
type$ -- 0
warning$ -- 0
while$ -- 5
width$ -- 7
write$ -- 67
(There were 3 warnings)
